{
  "project_info": {
    "project_number": "330489783679",
    "project_id": "reminder-508aa",
    "storage_bucket": "reminder-508aa.appspot.com"
  },
  "client": [
    {
      "client_info": {
        "mobilesdk_app_id": "1:330489783679:android:11c71d078b1507eb18664a",
        "android_client_info": {
          "package_name": "com.example.reminder"
        }
      },
      "oauth_client": [
        {
          "client_id": "330489783679-0hlp6d2d9ub0789gi387lsd215kan9fs.apps.googleusercontent.com",
          "client_type": 3
        }
      ],
      "api_key": [
        {
          "current_key": "AIzaSyBXbGy8KDFNHvg74KEM45ssbW8A7kZfHfI"
        }
      ],
      "services": {
        "appinvite_service": {
          "other_platform_oauth_client": [
            {
              "client_id": "330489783679-0hlp6d2d9ub0789gi387lsd215kan9fs.apps.googleusercontent.com",
              "client_type": 3
            }
          ]
        }
      }
    }
  ],
  "configuration_version": "1"
}